…
Load the data:

``` r
library(superfundr)
```

Look at it:

``` r
superfunds
#> # A tibble: 1,332 x 13
#>    region state site_name site_id epa_id address city    zip county ff   
#>     <dbl> <chr> <chr>       <dbl> <chr>  <chr>   <chr> <dbl> <chr>  <chr>
#>  1      1 CT    BARKHAMS…  100255 CTD98… ROUTE … BARK…  6063 LITCH… N    
#>  2      1 CT    BEACON H…  100180 CTD07… BLACKB… BEAC…  6403 NEW H… N    
#>  3      1 CT    DURHAM M…  100108 CTD00… MAIN ST DURH…  6422 MIDDL… N    
#>  4      1 CT    GALLUP'S…  100201 CTD10… ROUTE … PLAI…  6374 WINDH… N    
#>  5      1 CT    KELLOGG-…  100252 CTD98… NORWAL… NORW…  6856 FAIRF… N    
#>  6      1 CT    LAUREL P…  100232 CTD98… HUNTER… NAUG…  6770 NEW H… N    
#>  7      1 CT    LINEMAST…  100041 CTD00… 29 PLA… WOOD…  6281 WINDH… N    
#>  8      1 CT    NEW LOND…  100261 CTD98… ROUTE … NEW …  6349 NEW L… Y    
#>  9      1 CT    PRECISIO…  100156 CTD05… 1050 H… VERN…  6066 TOLLA… N    
#> 10      1 CT    RAYMARK …  100094 CTD00… 75 EAS… STRA…  6614 FAIRF… N    
#> # … with 1,322 more rows, and 3 more variables: latitude <dbl>,
#> #   longitude <dbl>, superfunds_date <date>
```
…
